ICD10 lookup table
…
Below: USAGE_UK == 1. Here, USAGE is labelled DAGGER and the corresponding asterisk term(s) are shown under QUALIFIERS. Note that other dagger and asterisk code types have different USAGE_UK categories (see https://silo.tips/download/icd-10-4-th-edition-codes-and-titles-and-metadata-file-specification (update this link to direct link to ICD10 metadata file))

# mapping df for ICD10_CODE:ALT_CODE format
icd10_alt_code_map <- all_lkps_maps_raw$icd10_lkp %>% 
  select(ICD10_CODE, ALT_CODE)

# df of dagger/asterisk pairs
icd10_dagger_asterisk_pairs <- all_lkps_maps_raw$icd10_lkp %>%
  filter(!is.na(QUALIFIERS)) 

all_lkps_maps_raw$icd10_lkp %>% 
  filter(USAGE %in% c("DAGGER", "ASTERIS"))

# A tibble: 926 × 12
   ICD10_CODE ALT_CODE USAGE  USAGE_UK DESCRIPTION         MODIFIER_4 MODIFIER_5
   <chr>      <chr>    <chr>  <chr>    <chr>               <chr>      <chr>     
 1 A06.4      A064     DAGGER 1        Amoebic liver absc… <NA>       <NA>      
 2 A06.5      A065     DAGGER 1        Amoebic lung absce… <NA>       <NA>      
 3 A06.6      A066     DAGGER 1        Amoebic brain absc… <NA>       <NA>      
 4 A17        A17      DAGGER 4        Tuberculosis of ne… <NA>       <NA>      
 5 A17.0      A170     DAGGER 1        Tuberculous mening… <NA>       <NA>      
 6 A17.1      A171     DAGGER 1        Meningeal tubercul… <NA>       <NA>      
 7 A17.8      A178     DAGGER 4        Other tuberculosis… <NA>       <NA>      
 8 A17.9      A179     DAGGER 1        Tuberculosis of ne… <NA>       <NA>      
 9 A18.0      A180     DAGGER 4        Tuberculosis of bo… <NA>       <NA>      
10 A18.7      A187     DAGGER 1        Tuberculosis of ad… <NA>       <NA>      
# … with 916 more rows, and 5 more variables: QUALIFIERS <chr>,
#   GENDER_MASK <chr>, MIN_AGE <chr>, MAX_AGE <chr>, TREE_DESCRIPTION <chr>
…
