Reformatting UKB ‘all_lkps_maps.xlsx’
…
#Create a nice interactive table (eg, in RStudio)

>>>>>>> dev_cy

Mapping files

DOWNLOAD PHECODE MAPPING FILES TO DATA DIRECTORY,THEN LOAD INTO R

<<<<<<< HEAD
How many ICD-10 codes are included in the UK Biobank lookup table? (head shown below)

# A tibble: 17,934 × 12
   ICD10_CODE ALT_CODE USAGE   USAGE_UK DESCRIPTION        MODIFIER_4 MODIFIER_5
   <chr>      <chr>    <chr>   <chr>    <chr>              <chr>      <chr>     
 1 A00        A00      DEFAULT 3        Cholera            <NA>       <NA>      
 2 A00.0      A000     DEFAULT 3        Cholera due to Vi… <NA>       <NA>      
 3 A00.1      A001     DEFAULT 3        Cholera due to Vi… <NA>       <NA>      
 4 A00.9      A009     DEFAULT 3        Cholera, unspecif… <NA>       <NA>      
 5 A01        A01      DEFAULT 3        Typhoid and parat… <NA>       <NA>      
 6 A01.0      A010     DEFAULT 3        Typhoid fever      <NA>       <NA>      
 7 A01.1      A011     DEFAULT 3        Paratyphoid fever… <NA>       <NA>      
 8 A01.2      A012     DEFAULT 3        Paratyphoid fever… <NA>       <NA>      
 9 A01.3      A013     DEFAULT 3        Paratyphoid fever… <NA>       <NA>      
10 A01.4      A014     DEFAULT 3        Paratyphoid fever… <NA>       <NA>      
# … with 17,924 more rows, and 5 more variables: QUALIFIERS <chr>,
#   GENDER_MASK <chr>, MIN_AGE <chr>, MAX_AGE <chr>, TREE_DESCRIPTION <chr>
…
