Build a SQLite database of clinical code look up and mapping tables — all_lkps_maps_to_db • codemapper
…
# import to R with dplyr::collect()
dplyr::collect(all_lkps_maps_dummy_db$icd10_lkp)
#> # A tibble: 183 × 13
#>    .rowid ICD10_CODE ALT_CODE USAGE   USAGE_UK DESCRIPTION MODIFIER_4 MODIFIER_5
#>     <int> <chr>      <chr>    <chr>   <chr>    <chr>       <chr>      <chr>     
#>  1      1 A00        A00      DEFAULT 3        Cholera     NA         NA        
#>  2      2 A00.0      A000     DEFAULT 3        Cholera du… NA         NA        
#>  3      3 A00.1      A001     DEFAULT 3        Cholera du… NA         NA        
#>  4      4 A00.9      A009     DEFAULT 3        Cholera, u… NA         NA        
#>  5      5 A01.0      A010     DEFAULT 3        Typhoid fe… NA         NA        
#>  6      6 A02        A02      DEFAULT 3        Other salm… NA         NA        
#>  7      7 A02.0      A020     DEFAULT 3        Salmonella… NA         NA        
#>  8      8 A02.1      A021     DEFAULT 3        Salmonella… NA         NA        
#>  9      9 A02.2      A022     DEFAULT 3        Localized … NA         NA        
#> 10     10 A02.8      A028     DEFAULT 3        Other spec… NA         NA        
#> # … with 173 more rows, and 5 more variables: QUALIFIERS <chr>,
#> #   GENDER_MASK <chr>, MIN_AGE <chr>, MAX_AGE <chr>, TREE_DESCRIPTION <chr>
…
