Import CALIBER code lists — read_caliber_raw • codemapper
…
    Examples

# read local copy of CALIBER repository into a named list. Note that
# (i) Medcodes are dropped and (ii) minimal reformatting is performed so that
# primary and secondary care codes may be combined into a single data frame
caliber_raw <- read_caliber_raw(dummy_caliber_dir_path())
#> Reading CALIBER clinical codes lists into R
#> Primary care Read 2 (1 of 3)
#> Secondary care ICD10 (2 of 3)
#> Secondary care OPCS4 (3 of 3)
caliber_raw
#> $read2
#> # A tibble: 142 × 6
#>    disease                 description           category code_type code  author
#>    <chr>                   <chr>                 <chr>    <chr>     <chr> <chr> 
#>  1 End stage renal disease End stage renal fail… Diagnos… Readcode  K050… calib…
#>  2 End stage renal disease End stage renal fail… Diagnos… Medcode   6712  calib…
#>  3 End stage renal disease End stage renal fail… Diagnos… Readcode  K05.… calib…
#>  4 End stage renal disease End stage renal fail… Diagnos… Medcode   53852 calib…
#>  5 End stage renal disease End-stage renal dise… Procedu… Readcode  K0D.… calib…
#>  6 End stage renal disease End-stage renal dise… Procedu… Medcode   8330  calib…
#>  7 Diabetes                Type 1 diabetes mell… Type I … Readcode  C108… calib…
#>  8 Diabetes                Type 1 diabetes mell… Type I … Medcode   17858 calib…
#>  9 Diabetes                Type I diabetes mell… Type I … Readcode  C108… calib…
#> 10 Diabetes                Type I diabetes mell… Type I … Medcode   24423 calib…
#> # … with 132 more rows
…
# combine into a single data frame using dplyr
dplyr::bind_rows(caliber_raw)
#> # A tibble: 154 × 6
#>    disease                 description           category code_type code  author
#>    <chr>                   <chr>                 <chr>    <chr>     <chr> <chr> 
#>  1 End stage renal disease End stage renal fail… Diagnos… Readcode  K050… calib…
#>  2 End stage renal disease End stage renal fail… Diagnos… Medcode   6712  calib…
#>  3 End stage renal disease End stage renal fail… Diagnos… Readcode  K05.… calib…
#>  4 End stage renal disease End stage renal fail… Diagnos… Medcode   53852 calib…
#>  5 End stage renal disease End-stage renal dise… Procedu… Readcode  K0D.… calib…
#>  6 End stage renal disease End-stage renal dise… Procedu… Medcode   8330  calib…
#>  7 Diabetes                Type 1 diabetes mell… Type I … Readcode  C108… calib…
#>  8 Diabetes                Type 1 diabetes mell… Type I … Medcode   17858 calib…
#>  9 Diabetes                Type I diabetes mell… Type I … Readcode  C108… calib…
#> 10 Diabetes                Type I diabetes mell… Type I … Medcode   24423 calib…
#> # … with 144 more rows
…
