ICD10 code formats • codemapper
…
all_lkps_maps_dummy <- suppressMessages(build_all_lkps_maps_dummy())

Two formats: ‘ICD10_CODE’ and ‘ALT_CODE’

ICD10 codes may be recorded as either ‘ICD10_CODE’ or ‘ALT_CODE’ format. For example, ‘E10.9’ (Type 1 diabetes mellitus without complications) is recorded as ‘E109’ in ‘ALT_CODE’ format.

Both formats are provided in the ICD10 lookup table:

all_lkps_maps_dummy$icd10_lkp
#> # A tibble: 183 × 13
#>    .rowid ICD10_CODE ALT_CODE USAGE   USAGE_UK DESCRIPTION MODIFIER_4 MODIFIER_5
#>     <int> <chr>      <chr>    <chr>   <chr>    <chr>       <chr>      <chr>     
#>  1      1 A00        A00      DEFAULT 3        Cholera     NA         NA        
#>  2      2 A00.0      A000     DEFAULT 3        Cholera du… NA         NA        
#>  3      3 A00.1      A001     DEFAULT 3        Cholera du… NA         NA        
#>  4      4 A00.9      A009     DEFAULT 3        Cholera, u… NA         NA        
#>  5      5 A01.0      A010     DEFAULT 3        Typhoid fe… NA         NA        
#>  6      6 A02        A02      DEFAULT 3        Other salm… NA         NA        
#>  7      7 A02.0      A020     DEFAULT 3        Salmonella… NA         NA        
#>  8      8 A02.1      A021     DEFAULT 3        Salmonella… NA         NA        
#>  9      9 A02.2      A022     DEFAULT 3        Localized … NA         NA        
#> 10     10 A02.8      A028     DEFAULT 3        Other spec… NA         NA        
#> # … with 173 more rows, and 5 more variables: QUALIFIERS <chr>,
#> #   GENDER_MASK <chr>, MIN_AGE <chr>, MAX_AGE <chr>, TREE_DESCRIPTION <chr>

However only the ‘ALT_CODE’ format is used in all other mapping tables that include ICD10 codes:

all_lkps_maps_dummy$icd9_icd10 %>% 
  select(ICD9,
         ICD10,
         DESCRIPTION_ICD10)
#> # A tibble: 47 × 3
#>    ICD9  ICD10 DESCRIPTION_ICD10                                           
#>    <chr> <chr> <chr>                                                       
#>  1 0020  A010  Typhoid fever                                               
#>  2 0341  A38X  Scarlet fever                                               
#>  3 218   D250  Submucous leiomyoma of uterus                               
#>  4 218   D251  Intramural leiomyoma of uterus                              
#>  5 218   D252  Subserosal leiomyoma of uterus                              
#>  6 218   D259  Leiomyoma of uterus, unspecified                            
#>  7 2890  D751  Secondary polycythaemia                                     
#>  8 NA    E100  Insulin-dependent diabetes mellitus with coma               
#>  9 NA    E101  Insulin-dependent diabetes mellitus with ketoacidosis       
#> 10 NA    E102  Insulin-dependent diabetes mellitus with renal complications
#> # … with 37 more rows
…
